{
	"cards": [
		{
			"hidden": 0,
			"label": "Marketplace",
			"links": "[\n    {\n        \"description\": \"Woocommerce marketplace settings\",\n        \"label\": \"Woocommerce Settings\",\n        \"name\": \"Woocommerce Settings\",\n        \"type\": \"doctype\"\n    },\n    {\n        \"description\": \"Amazon MWS settings\",\n        \"label\": \"Amazon MWS Settings\",\n        \"name\": \"Amazon MWS Settings\",\n        \"type\": \"doctype\"\n    },\n    {\n        \"description\": \"Shopify settings\",\n        \"label\": \"Shopify Settings\",\n        \"name\": \"Shopify Settings\",\n        \"type\": \"doctype\"\n    }\n]"
		},
		{
			"hidden": 0,
			"label": "Payments",
			"links": "[\n    {\n        \"description\": \"GoCardless payment gateway settings\",\n        \"label\": \"GoCardless Settings\",\n        \"name\": \"GoCardless Settings\",\n        \"type\": \"doctype\"\n    }\n]"
		},
		{
			"hidden": 0,
			"label": "Settings",
			"links": "[\n    {\n        \"description\": \"Plaid settings\",\n        \"label\": \"Plaid Settings\",\n        \"name\": \"Plaid Settings\",\n        \"type\": \"doctype\"\n    },\n    {\n        \"description\": \"Exotel settings\",\n        \"label\": \"Exotel Settings\",\n        \"name\": \"Exotel Settings\",\n        \"type\": \"doctype\"\n    }\n]"
		}
	],
	"category": "Modules",
	"charts": [],
	"creation": "2020-08-20 19:30:48.138801",
	"developer_mode_only": 0,
	"disable_user_customization": 0,
	"docstatus": 0,
	"doctype": "Desk Page",
	"extends": "Integrations",
	"extends_another_page": 1,
	"hide_custom": 1,
	"idx": 0,
	"is_standard": 1,
	"label": "Dokos Integrations",
	"modified": "2020-10-23 16:30:51.494655",
	"modified_by": "Administrator",
	"module": "ERPNext Integrations",
	"name": "Dokos Integrations",
	"owner": "Administrator",
	"pin_to_bottom": 0,
	"pin_to_top": 0,
	"shortcuts": []
}