{
 "actions": [],
 "creation": "2020-08-03 08:10:42.541814",
 "doctype": "DocType",
 "editable_grid": 1,
 "engine": "InnoDB",
 "field_order": [
  "item_booking_section",
  "clear_item_booking_draft_duration",
  "column_break_4",
  "enable_simultaneous_booking",
  "sync_with_google_calendar",
  "units_of_measure_section",
  "minute_uom",
  "column_break_8",
  "month_uom"
 ],
 "fields": [
  {
   "fieldname": "item_booking_section",
   "fieldtype": "Section Break",
   "label": "Item Booking"
  },
  {
   "description": "Used for slots calculation.<br>Please add an UOM conversion factor between each UOM used in booked items and this UOM.",
   "fieldname": "minute_uom",
   "fieldtype": "Link",
   "label": "Minute UOM",
   "options": "UOM"
  },
  {
   "default": "15",
   "description": "Minimum 3 minutes.<br>Set 0 to disable this functionality.",
   "fieldname": "clear_item_booking_draft_duration",
   "fieldtype": "Int",
   "label": "Clear drafts after x minutes"
  },
  {
   "fieldname": "column_break_4",
   "fieldtype": "Column Break"
  },
  {
   "default": "0",
   "fieldname": "enable_simultaneous_booking",
   "fieldtype": "Check",
   "label": "Enable simultaneous booking"
  },
  {
   "default": "0",
   "description": "Applicable for shopping cart bookings",
   "fieldname": "sync_with_google_calendar",
   "fieldtype": "Check",
   "label": "Automatically synchronize with Google Calendar"
  },
  {
   "fieldname": "units_of_measure_section",
   "fieldtype": "Section Break",
   "label": "Units of Measure"
  },
  {
   "fieldname": "month_uom",
   "fieldtype": "Link",
   "label": "Month UOM",
   "options": "UOM"
  },
  {
   "fieldname": "column_break_8",
   "fieldtype": "Column Break"
  }
 ],
 "issingle": 1,
 "links": [],
 "modified": "2020-10-07 14:20:06.714590",
 "modified_by": "Administrator",
 "module": "Venue",
 "name": "Venue Settings",
 "owner": "Administrator",
 "permissions": [
  {
   "create": 1,
   "delete": 1,
   "email": 1,
   "print": 1,
   "read": 1,
   "role": "System Manager",
   "share": 1,
   "write": 1
  },
  {
   "create": 1,
   "delete": 1,
   "email": 1,
   "print": 1,
   "read": 1,
   "role": "Venue Manager",
   "share": 1,
   "write": 1
  }
 ],
 "restrict_to_domain": "Venue",
 "sort_field": "modified",
 "sort_order": "DESC"
}