{
    "creation": "2013-06-25 10:25:16",
    "description": "Settings for Selling Module",
    "doctype": "DocType",
    "document_type": "Other",
    "engine": "InnoDB",
    "field_order": [
     "cust_master_name",
     "campaign_naming_by",
     "customer_group",
     "territory",
     "selling_price_list",
     "close_opportunity_after_days",
     "default_valid_till",
     "column_break_5",
     "so_required",
     "dn_required",
     "sales_update_frequency",
     "maintain_same_sales_rate",
     "editable_price_list_rate",
     "allow_multiple_items",
     "allow_against_multiple_purchase_orders",
     "validate_selling_price",
     "hide_tax_id"
    ],
    "fields": [
     {
      "default": "Customer Name",
      "fieldname": "cust_master_name",
      "fieldtype": "Select",
      "in_list_view": 1,
      "label": "Customer Naming By",
      "options": "Customer Name\nNaming Series"
     },
     {
      "fieldname": "campaign_naming_by",
      "fieldtype": "Select",
      "in_list_view": 1,
      "label": "Campaign Naming By",
      "options": "Campaign Name\nNaming Series"
     },
     {
      "fieldname": "customer_group",
      "fieldtype": "Link",
      "in_list_view": 1,
      "label": "Default Customer Group",
      "options": "Customer Group"
     },
     {
      "fieldname": "territory",
      "fieldtype": "Link",
      "in_list_view": 1,
      "label": "Default Territory",
      "options": "Territory"
     },
     {
      "fieldname": "selling_price_list",
      "fieldtype": "Link",
      "in_list_view": 1,
      "label": "Default Price List",
      "options": "Price List"
     },
     {
      "default": "15",
      "description": "Auto close Opportunity after the no. of days mentioned above",
      "fieldname": "close_opportunity_after_days",
      "fieldtype": "Int",
      "label": "Close Opportunity After Days"
     },
     {
      "fieldname": "default_valid_till",
      "fieldtype": "Data",
      "label": "Default Quotation Validity Days"
     },
     {
      "fieldname": "column_break_5",
      "fieldtype": "Column Break"
     },
     {
      "fieldname": "so_required",
      "fieldtype": "Select",
      "label": "Is Sales Order Required for Sales Invoice & Delivery Note Creation ?",
      "options": "No\nYes"
     },
     {
      "fieldname": "dn_required",
      "fieldtype": "Select",
      "label": "Is Delivery Note Required for Sales Invoice Creation ?",
      "options": "No\nYes"
     },
     {
      "default": "Each Transaction",
      "description": "How often should Project and Company be updated based on Sales Transactions ?",
      "fieldname": "sales_update_frequency",
      "fieldtype": "Select",
      "label": "Sales Update Frequency",
      "options": "Each Transaction\nDaily\nMonthly",
      "reqd": 1
     },
     {
      "default": "0",
      "fieldname": "maintain_same_sales_rate",
      "fieldtype": "Check",
      "label": "Maintain Same Rate Throughout Sales Cycle"
     },
     {
      "default": "0",
      "fieldname": "editable_price_list_rate",
      "fieldtype": "Check",
      "label": "Allow User to Edit Price List Rate in Transactions"
     },
     {
      "default": "0",
      "fieldname": "allow_multiple_items",
      "fieldtype": "Check",
      "label": "Allow Item to Be Added Multiple Times in a Transaction"
     },
     {
      "default": "0",
      "fieldname": "allow_against_multiple_purchase_orders",
      "fieldtype": "Check",
      "label": "Allow Multiple Sales Orders Against a Customer's Purchase Order"
     },
     {
      "default": "0",
      "fieldname": "validate_selling_price",
      "fieldtype": "Check",
      "label": "Validate Selling Price for Item Against Purchase Rate or Valuation Rate"
     },
     {
      "default": "0",
      "fieldname": "hide_tax_id",
      "fieldtype": "Check",
      "label": "Hide Customer's Tax ID from Sales Transactions"
     }
    ],
    "icon": "fa fa-cog",
    "idx": 1,
    "issingle": 1,
    "modified": "2020-10-13 12:12:56.784014",
    "modified_by": "Administrator",
    "module": "Selling",
    "name": "Selling Settings",
    "owner": "Administrator",
    "permissions": [
     {
      "create": 1,
      "email": 1,
      "print": 1,
      "read": 1,
      "role": "System Manager",
      "share": 1,
      "write": 1
     }
    ],
    "sort_field": "modified",
    "sort_order": "DESC"
   }