{
 "add_total_row": 0,
 "columns": [],
 "creation": "2020-11-02 08:45:13.912006",
 "disable_prepared_report": 0,
 "disabled": 0,
 "docstatus": 0,
 "doctype": "Report",
 "filters": [],
 "idx": 0,
 "is_standard": "Yes",
 "letter_head": "Standard",
 "modified": "2020-11-02 08:45:13.912006",
 "modified_by": "Administrator",
 "module": "Accounts",
 "name": "Monthly Recurring Revenue",
 "owner": "Administrator",
 "prepared_report": 0,
 "ref_doctype": "Subscription",
 "report_name": "Monthly Recurring Revenue",
 "report_type": "Script Report",
 "roles": [
  {
   "role": "System Manager"
  },
  {
   "role": "Accounts User"
  },
  {
   "role": "Accounts Manager"
  }
 ]
}